INSERT INTO officedb.staff (id_staff, nama_staff, umur_staff, id_manager) VALUES ("S001", "Mamat", 20, "M001");

INSERT INTO officedb.staff VALUES 
	("S002", "Udin", 19, "M001"),
    ("S003", "Joko", 21, "M001"),
    ("S004", "Budi", 21, "M002");